[{
        "id": 1,
        "name": "Paraíba",
        "link": "-",
        "details": {
            "id_0": "1.1",
            "name_0": "João Pessoa",
            "vinculo_0": "Paraiba",
            "id_1": "1.1.1",
            "name_1": "Altiplano",
            "vinculo_1": "João Pessoa",
            "id_2": "1.2",
            "name_2": "Cabedelo",
            "vinculo_2": "Paraiba"
        }
    },
    {
        "id": 2,
        "name": "Pernambuco",
        "link": "-",
        "details": {
            "id_0": "1.1",
            "name_0": "Recife",
            "vinculo_0": "Pernambuco",
            "id_1": "1.1.1",
            "name_1": "Altiplano",
            "vinculo_1": "João Pessoa",
            "id_2": "1.2",
            "name_2": "Cabedelo",
            "vinculo_2": "Paraiba"
        }
    }
]